{
  "base_url": "/user/chloeatheaux-mt15-2021-tp5-suhk20e4/",
  "hostname": "0.0.0.0",
  "notebook_dir": "/home/jovyan",
  "password": false,
  "pid": 18,
  "port": 8888,
  "secure": false,
  "sock": "",
  "token": "PP_7xFp1QVOrUxlZAqO7zw",
  "url": "http://0.0.0.0:8888/user/chloeatheaux-mt15-2021-tp5-suhk20e4/"
}